Getting Started
…
Generating point predictions

Let’s work through a motivating example of predicting a penguin’s weight (body_mass_g) from other characteristics using the Palmer Penguins dataset.

library(tidymodels)

data("penguins")

penguins <- 
  penguins %>%
  drop_na()

penguins
#> # A tibble: 333 x 7
#>    species island    bill_length_mm bill_depth_mm flipper_length_mm body_mass_g
#>    <fct>   <fct>              <dbl>         <dbl>             <int>       <int>
#>  1 Adelie  Torgersen           39.1          18.7               181        3750
#>  2 Adelie  Torgersen           39.5          17.4               186        3800
#>  3 Adelie  Torgersen           40.3          18                 195        3250
#>  4 Adelie  Torgersen           36.7          19.3               193        3450
#>  5 Adelie  Torgersen           39.3          20.6               190        3650
#>  6 Adelie  Torgersen           38.9          17.8               181        3625
#>  7 Adelie  Torgersen           39.2          19.6               195        4675
#>  8 Adelie  Torgersen           41.1          17.6               182        3200
#>  9 Adelie  Torgersen           38.6          21.2               191        3800
#> 10 Adelie  Torgersen           34.6          21.1               198        4400
#> # ... with 323 more rows, and 1 more variable: sex <fct>
…
library(workboots)

# create 100 models from bootstrap resamples and make predictions on the test set
set.seed(345)
penguins_preds_boot <- 
  penguins_wf %>%
  predict_boots(
    n = 100,
    training_data = penguins_train,
    new_data = penguins_test
  )

penguins_preds_boot
#> # A tibble: 84 x 2
#>    rowid .preds            
#>    <int> <list>            
#>  1     1 <tibble [100 x 2]>
#>  2     2 <tibble [100 x 2]>
#>  3     3 <tibble [100 x 2]>
#>  4     4 <tibble [100 x 2]>
#>  5     5 <tibble [100 x 2]>
#>  6     6 <tibble [100 x 2]>
#>  7     7 <tibble [100 x 2]>
#>  8     8 <tibble [100 x 2]>
#>  9     9 <tibble [100 x 2]>
#> 10    10 <tibble [100 x 2]>
#> # ... with 74 more rows

From each set of nested predictions, we can summarize with a lower and upper bound of our prediction interval (this uses the quantile() function under the hood).

penguins_preds_boot %>%
  summarise_predictions()
#> # A tibble: 84 x 5
#>    rowid .preds             .pred_lower .pred .pred_upper
#>    <int> <list>                   <dbl> <dbl>       <dbl>
#>  1     1 <tibble [100 x 2]>       3296. 3469.       3799.
#>  2     2 <tibble [100 x 2]>       3307. 3528.       3825.
#>  3     3 <tibble [100 x 2]>       3369. 3617.       3913.
#>  4     4 <tibble [100 x 2]>       3799. 4129.       4492.
#>  5     5 <tibble [100 x 2]>       3662. 3899.       4102.
#>  6     6 <tibble [100 x 2]>       3258. 3522.       3819.
#>  7     7 <tibble [100 x 2]>       3281. 3450.       3582.
#>  8     8 <tibble [100 x 2]>       3736. 4073.       4340.
#>  9     9 <tibble [100 x 2]>       3221. 3453.       3616.
#> 10    10 <tibble [100 x 2]>       3195. 3388.       3611.
#> # ... with 74 more rows
…
